10장. dplyr로 하는 관계형 데이터
…
library(tidyverse)
library(nycflights13) # 실습에서 사용할 테이블

nycflights13 참고 사항 2013년 뉴욕에서 출발한 336,776개 항공편 정보
(출처: 미 교통통계)

flights 테이블과 관련된 4개의 티블이 존재
: airlines, airports planes, weather

10.2 nycflights13

nycflights13::flights %>%
   print(n = 6, width = Inf)

## # A tibble: 336,776 x 19
##    year month   day dep_time sched_dep_time dep_delay arr_time sched_arr_time
##   <int> <int> <int>    <int>          <int>     <dbl>    <int>          <int>
## 1  2013     1     1      517            515         2      830            819
## 2  2013     1     1      533            529         4      850            830
## 3  2013     1     1      542            540         2      923            850
## 4  2013     1     1      544            545        -1     1004           1022
## 5  2013     1     1      554            600        -6      812            837
## 6  2013     1     1      554            558        -4      740            728
##   arr_delay carrier flight tailnum origin dest  air_time distance  hour minute
##       <dbl> <chr>    <int> <chr>   <chr>  <chr>    <dbl>    <dbl> <dbl>  <dbl>
## 1        11 UA        1545 N14228  EWR    IAH        227     1400     5     15
## 2        20 UA        1714 N24211  LGA    IAH        227     1416     5     29
## 3        33 AA        1141 N619AA  JFK    MIA        160     1089     5     40
## 4       -18 B6         725 N804JB  JFK    BQN        183     1576     5     45
## 5       -25 DL         461 N668DN  LGA    ATL        116      762     6      0
## 6        12 UA        1696 N39463  EWR    ORD        150      719     5     58
##   time_hour          
##   <dttm>             
## 1 2013-01-01 05:00:00
## 2 2013-01-01 05:00:00
## 3 2013-01-01 05:00:00
## 4 2013-01-01 05:00:00
## 5 2013-01-01 06:00:00
## 6 2013-01-01 05:00:00
## # i 336,770 more rows
…
nycflights13::airports %>% # 각 공항 정보가 faa 공항 코드로 식별됨
print(n = 10, width = Inf)

## # A tibble: 1,458 x 8
##    faa   name                             lat    lon   alt    tz dst  
##    <chr> <chr>                          <dbl>  <dbl> <dbl> <dbl> <chr>
##  1 04G   Lansdowne Airport               41.1  -80.6  1044    -5 A    
##  2 06A   Moton Field Municipal Airport   32.5  -85.7   264    -6 A    
##  3 06C   Schaumburg Regional             42.0  -88.1   801    -6 A    
##  4 06N   Randall Airport                 41.4  -74.4   523    -5 A    
##  5 09J   Jekyll Island Airport           31.1  -81.4    11    -5 A    
##  6 0A9   Elizabethton Municipal Airport  36.4  -82.2  1593    -5 A    
##  7 0G6   Williams County Airport         41.5  -84.5   730    -5 A    
##  8 0G7   Finger Lakes Regional Airport   42.9  -76.8   492    -5 A    
##  9 0P2   Shoestring Aviation Airfield    39.8  -76.6  1000    -5 U    
## 10 0S9   Jefferson County Intl           48.1 -123.    108    -8 A    
##    tzone              
##    <chr>              
##  1 America/New_York   
##  2 America/Chicago    
##  3 America/Chicago    
##  4 America/New_York   
##  5 America/New_York   
##  6 America/New_York   
##  7 America/New_York   
##  8 America/New_York   
##  9 America/New_York   
## 10 America/Los_Angeles
## # i 1,448 more rows

nycflights13::planes %>% # 각 여객기 정보가 tailnum으로 식별됨
print(n = 10, width = Inf)

## # A tibble: 3,322 x 9
##    tailnum  year type                    manufacturer     model     engines
##    <chr>   <int> <chr>                   <chr>            <chr>       <int>
##  1 N10156   2004 Fixed wing multi engine EMBRAER          EMB-145XR       2
##  2 N102UW   1998 Fixed wing multi engine AIRBUS INDUSTRIE A320-214        2
##  3 N103US   1999 Fixed wing multi engine AIRBUS INDUSTRIE A320-214        2
##  4 N104UW   1999 Fixed wing multi engine AIRBUS INDUSTRIE A320-214        2
##  5 N10575   2002 Fixed wing multi engine EMBRAER          EMB-145LR       2
##  6 N105UW   1999 Fixed wing multi engine AIRBUS INDUSTRIE A320-214        2
##  7 N107US   1999 Fixed wing multi engine AIRBUS INDUSTRIE A320-214        2
##  8 N108UW   1999 Fixed wing multi engine AIRBUS INDUSTRIE A320-214        2
##  9 N109UW   1999 Fixed wing multi engine AIRBUS INDUSTRIE A320-214        2
## 10 N110UW   1999 Fixed wing multi engine AIRBUS INDUSTRIE A320-214        2
##    seats speed engine   
##    <int> <int> <chr>    
##  1    55    NA Turbo-fan
##  2   182    NA Turbo-fan
##  3   182    NA Turbo-fan
##  4   182    NA Turbo-fan
##  5    55    NA Turbo-fan
##  6   182    NA Turbo-fan
##  7   182    NA Turbo-fan
##  8   182    NA Turbo-fan
##  9   182    NA Turbo-fan
## 10   182    NA Turbo-fan
## # i 3,312 more rows

nycflights13::weather %>% # 각 NYC 공항의 매 시각 날씨 정보
print(n = 6, width = Inf)

## # A tibble: 26,115 x 15
##   origin  year month   day  hour  temp  dewp humid wind_dir wind_speed wind_gust
##   <chr>  <int> <int> <int> <int> <dbl> <dbl> <dbl>    <dbl>      <dbl>     <dbl>
## 1 EWR     2013     1     1     1  39.0  26.1  59.4      270      10.4         NA
## 2 EWR     2013     1     1     2  39.0  27.0  61.6      250       8.06        NA
## 3 EWR     2013     1     1     3  39.0  28.0  64.4      240      11.5         NA
## 4 EWR     2013     1     1     4  39.9  28.0  62.2      250      12.7         NA
## 5 EWR     2013     1     1     5  39.0  28.0  64.4      260      12.7         NA
## 6 EWR     2013     1     1     6  37.9  28.0  67.2      240      11.5         NA
##   precip pressure visib time_hour          
##    <dbl>    <dbl> <dbl> <dttm>             
## 1      0    1012     10 2013-01-01 01:00:00
## 2      0    1012.    10 2013-01-01 02:00:00
## 3      0    1012.    10 2013-01-01 03:00:00
## 4      0    1012.    10 2013-01-01 04:00:00
## 5      0    1012.    10 2013-01-01 05:00:00
## 6      0    1012.    10 2013-01-01 06:00:00
## # i 26,109 more rows
…
결합해야 하는 테이블: flights(각 비행기의 origin & dest 속함)
+ airports(각 공항의 위도와 경도 값)

## 1. 내부 조인 이용하여 테이블 결합하기

flights_latlon <- flights %>% #flights_latlon 변수 생성
 inner_join(select(airports, origin = faa, origin_lat = lat, origin_lon = lon),
  by = "origin") %>% 
 inner_join(select(airports, dest = faa, dest_lat = lat, dest_lon = lon),
  by = "dest")

flights_latlon %>%
   print(n = 6, width = Inf)

## # A tibble: 329,174 x 23
##    year month   day dep_time sched_dep_time dep_delay arr_time sched_arr_time
##   <int> <int> <int>    <int>          <int>     <dbl>    <int>          <int>
## 1  2013     1     1      517            515         2      830            819
## 2  2013     1     1      533            529         4      850            830
## 3  2013     1     1      542            540         2      923            850
## 4  2013     1     1      554            600        -6      812            837
## 5  2013     1     1      554            558        -4      740            728
## 6  2013     1     1      555            600        -5      913            854
##   arr_delay carrier flight tailnum origin dest  air_time distance  hour minute
##       <dbl> <chr>    <int> <chr>   <chr>  <chr>    <dbl>    <dbl> <dbl>  <dbl>
## 1        11 UA        1545 N14228  EWR    IAH        227     1400     5     15
## 2        20 UA        1714 N24211  LGA    IAH        227     1416     5     29
## 3        33 AA        1141 N619AA  JFK    MIA        160     1089     5     40
## 4       -25 DL         461 N668DN  LGA    ATL        116      762     6      0
## 5        12 UA        1696 N39463  EWR    ORD        150      719     5     58
## 6        19 B6         507 N516JB  EWR    FLL        158     1065     6      0
##   time_hour           origin_lat origin_lon dest_lat dest_lon
##   <dttm>                   <dbl>      <dbl>    <dbl>    <dbl>
## 1 2013-01-01 05:00:00       40.7      -74.2     30.0    -95.3
## 2 2013-01-01 05:00:00       40.8      -73.9     30.0    -95.3
## 3 2013-01-01 05:00:00       40.6      -73.8     25.8    -80.3
## 4 2013-01-01 06:00:00       40.8      -73.9     33.6    -84.4
## 5 2013-01-01 05:00:00       40.7      -74.2     42.0    -87.9
## 6 2013-01-01 06:00:00       40.7      -74.2     26.1    -80.2
## # i 329,168 more rows
…
추가 테이블에 명시적인 기본키가 없는 경우도 있음

모든 행은 관측값이지만 어떤 변수를 조합해도 각 행을 신뢰성 있게 구분하지
못하는 경우 ex) flight 테이블의 기본키는? 없다

flights %>%
   count(year, month, day, flight) %>%
   filter(n > 1)

## # A tibble: 29,768 x 5
##     year month   day flight     n
##    <int> <int> <int>  <int> <int>
##  1  2013     1     1      1     2
##  2  2013     1     1      3     2
##  3  2013     1     1      4     2
##  4  2013     1     1     11     3
##  5  2013     1     1     15     2
##  6  2013     1     1     21     2
##  7  2013     1     1     27     4
##  8  2013     1     1     31     2
##  9  2013     1     1     32     2
## 10  2013     1     1     35     2
## # i 29,758 more rows

flights %>%
   count(year, month, day, tailnum) %>%
   filter(n > 1)

## # A tibble: 64,928 x 5
##     year month   day tailnum     n
##    <int> <int> <int> <chr>   <int>
##  1  2013     1     1 N0EGMQ      2
##  2  2013     1     1 N11189      2
##  3  2013     1     1 N11536      2
##  4  2013     1     1 N11544      3
##  5  2013     1     1 N11551      2
##  6  2013     1     1 N12540      2
##  7  2013     1     1 N12567      2
##  8  2013     1     1 N13123      2
##  9  2013     1     1 N13538      3
## 10  2013     1     1 N13566      3
## # i 64,918 more rows
…
뮤테이팅 조인을 사용하면 두 테이블의 변수를 결합할 수 있음

관측값을 키로 매칭시킨 뒤, 한 테이블에서 다른 테이블로 변수를
복사

변수를 오른쪽에 추가하므로 이미 많은 변수가 있는 경우 새 변수가
출력되지 않음

flights2 <- flights %>%
   select(year:day, hour, origin, dest, tailnum, carrier)
flights2

## # A tibble: 336,776 x 8
##     year month   day  hour origin dest  tailnum carrier
##    <int> <int> <int> <dbl> <chr>  <chr> <chr>   <chr>  
##  1  2013     1     1     5 EWR    IAH   N14228  UA     
##  2  2013     1     1     5 LGA    IAH   N24211  UA     
##  3  2013     1     1     5 JFK    MIA   N619AA  AA     
##  4  2013     1     1     5 JFK    BQN   N804JB  B6     
##  5  2013     1     1     6 LGA    ATL   N668DN  DL     
##  6  2013     1     1     5 EWR    ORD   N39463  UA     
##  7  2013     1     1     6 EWR    FLL   N516JB  B6     
##  8  2013     1     1     6 LGA    IAD   N829AS  EV     
##  9  2013     1     1     6 JFK    MCO   N593JB  B6     
## 10  2013     1     1     6 LGA    ORD   N3ALAA  AA     
## # i 336,766 more rows

가정) flight2 데이터에 항공사 전체 이름을 추가

-> left_join()으로 airlines와 flights2 데이터프레임 결합 가능

flights2 %>%
   select(-origin, -dest) %>%
   left_join(airlines, by = "carrier")

## # A tibble: 336,776 x 7
##     year month   day  hour tailnum carrier name                    
##    <int> <int> <int> <dbl> <chr>   <chr>   <chr>                   
##  1  2013     1     1     5 N14228  UA      United Air Lines Inc.   
##  2  2013     1     1     5 N24211  UA      United Air Lines Inc.   
##  3  2013     1     1     5 N619AA  AA      American Airlines Inc.  
##  4  2013     1     1     5 N804JB  B6      JetBlue Airways         
##  5  2013     1     1     6 N668DN  DL      Delta Air Lines Inc.    
##  6  2013     1     1     5 N39463  UA      United Air Lines Inc.   
##  7  2013     1     1     6 N516JB  B6      JetBlue Airways         
##  8  2013     1     1     6 N829AS  EV      ExpressJet Airlines Inc.
##  9  2013     1     1     6 N593JB  B6      JetBlue Airways         
## 10  2013     1     1     6 N3ALAA  AA      American Airlines Inc.  
## # i 336,766 more rows
…
현재까지 테이블 쌍은 항상 하나의 변수로 조인되었으며, 그 변수는 두
테이블에서 같은 이름을 가짐 (by = “key”로 제약사항 코드화함)

by에 다른 값을 사용하여 테이블을 연결하는 방법 살펴보기

기본값 by = NULL 사용 두 테이블에 있는 모든 변수를 사용하는 자연
조인(nature join)

flights2 %>%
   left_join(weather) %>%
   print(n = 6, width = Inf)

## Joining with `by = join_by(year, month, day, hour, origin)`

## # A tibble: 336,776 x 18
##    year month   day  hour origin dest  tailnum carrier  temp  dewp humid
##   <int> <int> <int> <dbl> <chr>  <chr> <chr>   <chr>   <dbl> <dbl> <dbl>
## 1  2013     1     1     5 EWR    IAH   N14228  UA       39.0  28.0  64.4
## 2  2013     1     1     5 LGA    IAH   N24211  UA       39.9  25.0  54.8
## 3  2013     1     1     5 JFK    MIA   N619AA  AA       39.0  27.0  61.6
## 4  2013     1     1     5 JFK    BQN   N804JB  B6       39.0  27.0  61.6
## 5  2013     1     1     6 LGA    ATL   N668DN  DL       39.9  25.0  54.8
## 6  2013     1     1     5 EWR    ORD   N39463  UA       39.0  28.0  64.4
##   wind_dir wind_speed wind_gust precip pressure visib time_hour          
##      <dbl>      <dbl>     <dbl>  <dbl>    <dbl> <dbl> <dttm>             
## 1      260       12.7      NA        0    1012.    10 2013-01-01 05:00:00
## 2      250       15.0      21.9      0    1011.    10 2013-01-01 05:00:00
## 3      260       15.0      NA        0    1012.    10 2013-01-01 05:00:00
## 4      260       15.0      NA        0    1012.    10 2013-01-01 05:00:00
## 5      260       16.1      23.0      0    1012.    10 2013-01-01 06:00:00
## 6      260       12.7      NA        0    1012.    10 2013-01-01 05:00:00
## # i 336,770 more rows

문자형 벡터 by = “x” 사용하기

자연 조인과 같지만 일부 공통 변수만 사용 ex) flights와 planes에는
year 변수가 있지만 서로 다른 의미라 tailnum만 조인하고 싶은
경우

flights2 %>%
   left_join(planes, by = "tailnum") %>%
   print(n = 6, width = Inf)

## # A tibble: 336,776 x 16
##   year.x month   day  hour origin dest  tailnum carrier year.y
##    <int> <int> <int> <dbl> <chr>  <chr> <chr>   <chr>    <int>
## 1   2013     1     1     5 EWR    IAH   N14228  UA        1999
## 2   2013     1     1     5 LGA    IAH   N24211  UA        1998
## 3   2013     1     1     5 JFK    MIA   N619AA  AA        1990
## 4   2013     1     1     5 JFK    BQN   N804JB  B6        2012
## 5   2013     1     1     6 LGA    ATL   N668DN  DL        1991
## 6   2013     1     1     5 EWR    ORD   N39463  UA        2012
##   type                    manufacturer model     engines seats speed engine   
##   <chr>                   <chr>        <chr>       <int> <int> <int> <chr>    
## 1 Fixed wing multi engine BOEING       737-824         2   149    NA Turbo-fan
## 2 Fixed wing multi engine BOEING       737-824         2   149    NA Turbo-fan
## 3 Fixed wing multi engine BOEING       757-223         2   178    NA Turbo-fan
## 4 Fixed wing multi engine AIRBUS       A320-232        2   200    NA Turbo-fan
## 5 Fixed wing multi engine BOEING       757-232         2   178    NA Turbo-fan
## 6 Fixed wing multi engine BOEING       737-924ER       2   191    NA Turbo-fan
## # i 336,770 more rows
…
avg_dest_delays <- flights %>%
   group_by(dest) %>%
   summarise(delay = mean(arr_delay, na.rm = TRUE), .groups = 'drop') %>%
   inner_join(airports, by = c(dest = "faa"))

avg_dest_delays %>%
   print(n = 6, width = Inf)

## # A tibble: 101 x 9
##   dest  delay name                                lat    lon   alt    tz dst  
##   <chr> <dbl> <chr>                             <dbl>  <dbl> <dbl> <dbl> <chr>
## 1 ABQ    4.38 Albuquerque International Sunport  35.0 -107.   5355    -7 A    
## 2 ACK    4.85 Nantucket Mem                      41.3  -70.1    48    -5 A    
## 3 ALB   14.4  Albany Intl                        42.7  -73.8   285    -5 A    
## 4 ANC   -2.5  Ted Stevens Anchorage Intl         61.2 -150.    152    -9 A    
## 5 ATL   11.3  Hartsfield Jackson Atlanta Intl    33.6  -84.4  1026    -5 A    
## 6 AUS    6.02 Austin Bergstrom Intl              30.2  -97.7   542    -6 A    
##   tzone            
##   <chr>            
## 1 America/Denver   
## 2 America/New_York 
## 3 America/New_York 
## 4 America/Anchorage
## 5 America/New_York 
## 6 America/Chicago  
## # i 95 more rows
…
flights에 출발지와 목적지의 위치(즉, lat과 lon)를 추가하라.

airport_locations <- airports %>%
   select(faa, lat, lon)

flights_locations <- flights %>%
   select(year:day, hour, origin, dest) %>%
   left_join(airport_locations, by = c("origin" = "faa")) %>%
   left_join(airport_locations, by = c("dest" = "faa"))

flights_locations %>%
   print(n = 6, width = Inf)

## # A tibble: 336,776 x 10
##    year month   day  hour origin dest  lat.x lon.x lat.y lon.y
##   <int> <int> <int> <dbl> <chr>  <chr> <dbl> <dbl> <dbl> <dbl>
## 1  2013     1     1     5 EWR    IAH    40.7 -74.2  30.0 -95.3
## 2  2013     1     1     5 LGA    IAH    40.8 -73.9  30.0 -95.3
## 3  2013     1     1     5 JFK    MIA    40.6 -73.8  25.8 -80.3
## 4  2013     1     1     5 JFK    BQN    40.6 -73.8  NA    NA  
## 5  2013     1     1     6 LGA    ATL    40.8 -73.9  33.6 -84.4
## 6  2013     1     1     5 EWR    ORD    40.7 -74.2  42.0 -87.9
## # i 336,770 more rows
…
목적지 중 한 곳으로 운행한 항공편을 찾는 방법: 필터 만들기

flights %>%
   filter(dest %in% top_dest$dest) %>%
   print(n = 6, width = Inf)

## # A tibble: 141,145 x 19
##    year month   day dep_time sched_dep_time dep_delay arr_time sched_arr_time
##   <int> <int> <int>    <int>          <int>     <dbl>    <int>          <int>
## 1  2013     1     1      542            540         2      923            850
## 2  2013     1     1      554            600        -6      812            837
## 3  2013     1     1      554            558        -4      740            728
## 4  2013     1     1      555            600        -5      913            854
## 5  2013     1     1      557            600        -3      838            846
## 6  2013     1     1      558            600        -2      753            745
##   arr_delay carrier flight tailnum origin dest  air_time distance  hour minute
##       <dbl> <chr>    <int> <chr>   <chr>  <chr>    <dbl>    <dbl> <dbl>  <dbl>
## 1        33 AA        1141 N619AA  JFK    MIA        160     1089     5     40
## 2       -25 DL         461 N668DN  LGA    ATL        116      762     6      0
## 3        12 UA        1696 N39463  EWR    ORD        150      719     5     58
## 4        19 B6         507 N516JB  EWR    FLL        158     1065     6      0
## 5        -8 B6          79 N593JB  JFK    MCO        140      944     6      0
## 6         8 AA         301 N3ALAA  LGA    ORD        138      733     6      0
##   time_hour          
##   <dttm>             
## 1 2013-01-01 05:00:00
## 2 2013-01-01 06:00:00
## 3 2013-01-01 05:00:00
## 4 2013-01-01 06:00:00
## 5 2013-01-01 06:00:00
## 6 2013-01-01 06:00:00
## # i 141,139 more rows

그러나, 이러한 접근 방식을 여러 변수로 확장하기는 어려움

semi_join을 사용하는 방법

단, 새 열을 추가하는 대신 y에서 일치하는 x의 행만 보존

flights %>%
   semi_join(top_dest) %>%
   print(n = 6, width = Inf)

## Joining with `by = join_by(dest)`

## # A tibble: 141,145 x 19
##    year month   day dep_time sched_dep_time dep_delay arr_time sched_arr_time
##   <int> <int> <int>    <int>          <int>     <dbl>    <int>          <int>
## 1  2013     1     1      542            540         2      923            850
## 2  2013     1     1      554            600        -6      812            837
## 3  2013     1     1      554            558        -4      740            728
## 4  2013     1     1      555            600        -5      913            854
## 5  2013     1     1      557            600        -3      838            846
## 6  2013     1     1      558            600        -2      753            745
##   arr_delay carrier flight tailnum origin dest  air_time distance  hour minute
##       <dbl> <chr>    <int> <chr>   <chr>  <chr>    <dbl>    <dbl> <dbl>  <dbl>
## 1        33 AA        1141 N619AA  JFK    MIA        160     1089     5     40
## 2       -25 DL         461 N668DN  LGA    ATL        116      762     6      0
## 3        12 UA        1696 N39463  EWR    ORD        150      719     5     58
## 4        19 B6         507 N516JB  EWR    FLL        158     1065     6      0
## 5        -8 B6          79 N593JB  JFK    MCO        140      944     6      0
## 6         8 AA         301 N3ALAA  LGA    ORD        138      733     6      0
##   time_hour          
##   <dttm>             
## 1 2013-01-01 05:00:00
## 2 2013-01-01 06:00:00
## 3 2013-01-01 05:00:00
## 4 2013-01-01 06:00:00
## 5 2013-01-01 06:00:00
## 6 2013-01-01 06:00:00
## # i 141,139 more rows
…
