12장. forcats로 하는 팩터형
…
## [1] "Dec" "Apr" "Jan" "Mar"

12.3 종합사회조사

앞으로는 forcats::gss_cat 에 초점을 맞출 것이다.

이는 시카고 대학 독립 연구기관인 NORC 에서 장기간 수행한 General Social Survey 의 샘플 데이터이다. 

이 설문조사에는 수천 개의 문항이 있는데, 이 중에서 팩터형과 작업할 때
자주 발생하는 문제를 보여주는 것들을 gss_cat 으로 선택했다. marital,
race, rincome , partyid, relig, denom

gss_cat 

## # A tibble: 21,483 x 9
##     year marital         age race  rincome        partyid    relig denom tvhours
##    <int> <fct>         <int> <fct> <fct>          <fct>      <fct> <fct>   <int>
##  1  2000 Never married    26 White $8000 to 9999  Ind,near ~ Prot~ Sout~      12
##  2  2000 Divorced         48 White $8000 to 9999  Not str r~ Prot~ Bapt~      NA
##  3  2000 Widowed          67 White Not applicable Independe~ Prot~ No d~       2
##  4  2000 Never married    39 White Not applicable Ind,near ~ Orth~ Not ~       4
##  5  2000 Divorced         25 White Not applicable Not str d~ None  Not ~       1
##  6  2000 Married          25 White $20000 - 24999 Strong de~ Prot~ Sout~      NA
##  7  2000 Never married    36 White $25000 or more Not str r~ Chri~ Not ~       3
##  8  2000 Divorced         44 White $7000 to 7999  Ind,near ~ Prot~ Luth~      NA
##  9  2000 Married          44 White $25000 or more Not str d~ Prot~ Other       0
## 10  2000 Married          47 White $25000 or more Strong re~ Prot~ Sout~       3
## # i 21,473 more rows
…
fct_reorder2() 는 가장 큰 x 값과 연관된 y 값으로
팩터를 재정렬 한다. 선 색상은 범례와 정렬되므로 이렇게 하면 플롯을
읽기 쉬워진다.

## 나이별 결혼여부 비율 
by_age <- gss_cat %>%
  filter(!is.na(age)) %>% 
  count(age, marital) %>% 
  group_by(age) %>%
  mutate(prop = n / sum(n))

by_age

## # A tibble: 351 x 4
## # Groups:   age [72]
##      age marital           n    prop
##    <int> <fct>         <int>   <dbl>
##  1    18 Never married    89 0.978  
##  2    18 Married           2 0.0220 
##  3    19 Never married   234 0.940  
##  4    19 Divorced          3 0.0120 
##  5    19 Widowed           1 0.00402
##  6    19 Married          11 0.0442 
##  7    20 Never married   227 0.904  
##  8    20 Separated         1 0.00398
##  9    20 Divorced          2 0.00797
## 10    20 Married          21 0.0837 
## # i 341 more rows
…
# fct_infreq() + fct_rev(): 빈도 오름차순으로
# 결혼상태의 빈도 기준으로 오름차순 정렬.
# fct_infreq() 디폴트: 내림차순
by_marital <- gss_cat %>%
  mutate(
    marital = marital %>%
      fct_infreq() %>% 
      fct_rev() # 오름차순 
    )
by_marital

## # A tibble: 21,483 x 9
##     year marital         age race  rincome        partyid    relig denom tvhours
##    <int> <fct>         <int> <fct> <fct>          <fct>      <fct> <fct>   <int>
##  1  2000 Never married    26 White $8000 to 9999  Ind,near ~ Prot~ Sout~      12
##  2  2000 Divorced         48 White $8000 to 9999  Not str r~ Prot~ Bapt~      NA
##  3  2000 Widowed          67 White Not applicable Independe~ Prot~ No d~       2
##  4  2000 Never married    39 White Not applicable Ind,near ~ Orth~ Not ~       4
##  5  2000 Divorced         25 White Not applicable Not str d~ None  Not ~       1
##  6  2000 Married          25 White $20000 - 24999 Strong de~ Prot~ Sout~      NA
##  7  2000 Never married    36 White $25000 or more Not str r~ Chri~ Not ~       3
##  8  2000 Divorced         44 White $7000 to 7999  Ind,near ~ Prot~ Luth~      NA
##  9  2000 Married          44 White $25000 or more Not str d~ Prot~ Other       0
## 10  2000 Married          47 White $25000 or more Strong re~ Prot~ Sout~       3
## # i 21,473 more rows
…
