Chapter 3. 데이터 변형(Transform)
…
3.1.2 nycflights13

dplyr의 기본 데이터 작업(manipulation) 동사를 탐색하기 위해서
nycflights13::flights를 사용할 것입니다.

뉴욕시에서 2013년에 출발한 모든 항공편이 포함되어 있음.

flights

## # A tibble: 336,776 x 19
##     year month   day dep_time sched_dep_time dep_delay arr_time sched_arr_time
##    <int> <int> <int>    <int>          <int>     <dbl>    <int>          <int>
##  1  2013     1     1      517            515         2      830            819
##  2  2013     1     1      533            529         4      850            830
##  3  2013     1     1      542            540         2      923            850
##  4  2013     1     1      544            545        -1     1004           1022
##  5  2013     1     1      554            600        -6      812            837
##  6  2013     1     1      554            558        -4      740            728
##  7  2013     1     1      555            600        -5      913            854
##  8  2013     1     1      557            600        -3      709            723
##  9  2013     1     1      557            600        -3      838            846
## 10  2013     1     1      558            600        -2      753            745
## # i 336,766 more rows
## # i 11 more variables: arr_delay <dbl>, carrier <chr>, flight <int>,
## #   tailnum <chr>, origin <chr>, dest <chr>, air_time <dbl>, distance <dbl>,
## #   hour <dbl>, minute <dbl>, time_hour <dttm>
…
그 이후의 인수들은 (따옴표가 없는) 변수 이름을 사용하여
데이터프레임에 무엇을 할지를 설명합니다.

결과는 새로운 데이터프레임입니다.

3.2 filter()로 행 필터링하기

filter()를 이용하면 값을 기준으로 데이터를 서브셋 할
수 있습니다. 첫 번째 인수는 데이터프레임 이름이고, 두 번째 이후의
인수들은 데이터프레임을 필터링하는 표현식들입니다. 예를 들어 1월 1일
항공편 모두를 다음과 같이 선택할 수 있습니다.

filter(flights, month == 1, day == 1)

## # A tibble: 842 x 19
##     year month   day dep_time sched_dep_time dep_delay arr_time sched_arr_time
##    <int> <int> <int>    <int>          <int>     <dbl>    <int>          <int>
##  1  2013     1     1      517            515         2      830            819
##  2  2013     1     1      533            529         4      850            830
##  3  2013     1     1      542            540         2      923            850
##  4  2013     1     1      544            545        -1     1004           1022
##  5  2013     1     1      554            600        -6      812            837
##  6  2013     1     1      554            558        -4      740            728
##  7  2013     1     1      555            600        -5      913            854
##  8  2013     1     1      557            600        -3      709            723
##  9  2013     1     1      557            600        -3      838            846
## 10  2013     1     1      558            600        -2      753            745
## # i 832 more rows
## # i 11 more variables: arr_delay <dbl>, carrier <chr>, flight <int>,
## #   tailnum <chr>, origin <chr>, dest <chr>, air_time <dbl>, distance <dbl>,
## #   hour <dbl>, minute <dbl>, time_hour <dttm>

dplyr 함수들은 입력을 절대 수정하지 않기 때문에, 즉, 기존의 flights
데이터셋을 바꾸지 않는다. 결과를 저장하려면 할당 연산자
<-를 사용해야 합니다.

jan1 <- filter(flights, month == 1, day == 1)

R은 결과를 출력하거나 변수에 저장합니다. 둘 다 수행되게 하려면
할당문을 괄호로 묶으면 됩니다. 12월 25일 항공편 모두를
선택한다면?

(dec25 <- filter(flights, month == 12, day == 25))

## # A tibble: 719 x 19
##     year month   day dep_time sched_dep_time dep_delay arr_time sched_arr_time
##    <int> <int> <int>    <int>          <int>     <dbl>    <int>          <int>
##  1  2013    12    25      456            500        -4      649            651
##  2  2013    12    25      524            515         9      805            814
##  3  2013    12    25      542            540         2      832            850
##  4  2013    12    25      546            550        -4     1022           1027
##  5  2013    12    25      556            600        -4      730            745
##  6  2013    12    25      557            600        -3      743            752
##  7  2013    12    25      557            600        -3      818            831
##  8  2013    12    25      559            600        -1      855            856
##  9  2013    12    25      559            600        -1      849            855
## 10  2013    12    25      600            600         0      850            846
## # i 709 more rows
## # i 11 more variables: arr_delay <dbl>, carrier <chr>, flight <int>,
## #   tailnum <chr>, origin <chr>, dest <chr>, air_time <dbl>, distance <dbl>,
## #   hour <dbl>, minute <dbl>, time_hour <dttm>
…
논리연산자

다음 코드는 11월이나 12월에 출발한 항공편 모두를 찾습니다.

 filter(flights, month == 11 | month == 12)

## # A tibble: 55,403 x 19
##     year month   day dep_time sched_dep_time dep_delay arr_time sched_arr_time
##    <int> <int> <int>    <int>          <int>     <dbl>    <int>          <int>
##  1  2013    11     1        5           2359         6      352            345
##  2  2013    11     1       35           2250       105      123           2356
##  3  2013    11     1      455            500        -5      641            651
##  4  2013    11     1      539            545        -6      856            827
##  5  2013    11     1      542            545        -3      831            855
##  6  2013    11     1      549            600       -11      912            923
##  7  2013    11     1      550            600       -10      705            659
##  8  2013    11     1      554            600        -6      659            701
##  9  2013    11     1      554            600        -6      826            827
## 10  2013    11     1      554            600        -6      749            751
## # i 55,393 more rows
## # i 11 more variables: arr_delay <dbl>, carrier <chr>, flight <int>,
## #   tailnum <chr>, origin <chr>, dest <chr>, air_time <dbl>, distance <dbl>,
## #   hour <dbl>, minute <dbl>, time_hour <dttm>
…
드 모르간 법칙을 이용하여, 복잡한 서브셋 동작을 단순화할 수도
있습니다. 앞서 설명했듯이 둘 다 수행되게 하려면 
할당문을 괄호로 묶으면 됩니다.

예를 들어 (출발 혹은 도착에서) 두 시간 이상 지연되지 않은
항공편을 모두 찾고 싶다면 다음의 두 필터 중 하나를 사용해도
됩니다.

!(x & y) == !x | !y

!(x | y) == !x & !y

filter(flights, !(arr_delay > 120 | dep_delay > 120))

## # A tibble: 316,050 x 19
##     year month   day dep_time sched_dep_time dep_delay arr_time sched_arr_time
##    <int> <int> <int>    <int>          <int>     <dbl>    <int>          <int>
##  1  2013     1     1      517            515         2      830            819
##  2  2013     1     1      533            529         4      850            830
##  3  2013     1     1      542            540         2      923            850
##  4  2013     1     1      544            545        -1     1004           1022
##  5  2013     1     1      554            600        -6      812            837
##  6  2013     1     1      554            558        -4      740            728
##  7  2013     1     1      555            600        -5      913            854
##  8  2013     1     1      557            600        -3      709            723
##  9  2013     1     1      557            600        -3      838            846
## 10  2013     1     1      558            600        -2      753            745
## # i 316,040 more rows
## # i 11 more variables: arr_delay <dbl>, carrier <chr>, flight <int>,
## #   tailnum <chr>, origin <chr>, dest <chr>, air_time <dbl>, distance <dbl>,
## #   hour <dbl>, minute <dbl>, time_hour <dttm>

## 위와 결과가 같음. 
filter(flights, arr_delay <= 120, dep_delay <= 120)

## # A tibble: 316,050 x 19
##     year month   day dep_time sched_dep_time dep_delay arr_time sched_arr_time
##    <int> <int> <int>    <int>          <int>     <dbl>    <int>          <int>
##  1  2013     1     1      517            515         2      830            819
##  2  2013     1     1      533            529         4      850            830
##  3  2013     1     1      542            540         2      923            850
##  4  2013     1     1      544            545        -1     1004           1022
##  5  2013     1     1      554            600        -6      812            837
##  6  2013     1     1      554            558        -4      740            728
##  7  2013     1     1      555            600        -5      913            854
##  8  2013     1     1      557            600        -3      709            723
##  9  2013     1     1      557            600        -3      838            846
## 10  2013     1     1      558            600        -2      753            745
## # i 316,040 more rows
## # i 11 more variables: arr_delay <dbl>, carrier <chr>, flight <int>,
## #   tailnum <chr>, origin <chr>, dest <chr>, air_time <dbl>, distance <dbl>,
## #   hour <dbl>, minute <dbl>, time_hour <dttm>
…
3.3 arrange()로 행 정렬하기

arrange()는 행을 선택하는 대신, 순서를 바꾼다는 것만
제외하고는 filter()와 유사하게 작동합니다.
데이터프레임과 정렬기준으로 지정할 열 이름 집합(혹은 복잡한 표현식)을
입력으로 합니다. 하나 이상의 열 이름을 제공하면 각 열은 이전 열의
동점값(tie) 상황을 해결하는 데 사용됩니다. 디폴트는 오름차순
정렬임…

arrange(flights, year, month, day)

## # A tibble: 336,776 x 19
##     year month   day dep_time sched_dep_time dep_delay arr_time sched_arr_time
##    <int> <int> <int>    <int>          <int>     <dbl>    <int>          <int>
##  1  2013     1     1      517            515         2      830            819
##  2  2013     1     1      533            529         4      850            830
##  3  2013     1     1      542            540         2      923            850
##  4  2013     1     1      544            545        -1     1004           1022
##  5  2013     1     1      554            600        -6      812            837
##  6  2013     1     1      554            558        -4      740            728
##  7  2013     1     1      555            600        -5      913            854
##  8  2013     1     1      557            600        -3      709            723
##  9  2013     1     1      557            600        -3      838            846
## 10  2013     1     1      558            600        -2      753            745
## # i 336,766 more rows
## # i 11 more variables: arr_delay <dbl>, carrier <chr>, flight <int>,
## #   tailnum <chr>, origin <chr>, dest <chr>, air_time <dbl>, distance <dbl>,
## #   hour <dbl>, minute <dbl>, time_hour <dttm>

내림차순으로 열을 재정렬하려면 desc()를 사용합니다.

arrange(flights, desc(dep_delay))

## # A tibble: 336,776 x 19
##     year month   day dep_time sched_dep_time dep_delay arr_time sched_arr_time
##    <int> <int> <int>    <int>          <int>     <dbl>    <int>          <int>
##  1  2013     1     9      641            900      1301     1242           1530
##  2  2013     6    15     1432           1935      1137     1607           2120
##  3  2013     1    10     1121           1635      1126     1239           1810
##  4  2013     9    20     1139           1845      1014     1457           2210
##  5  2013     7    22      845           1600      1005     1044           1815
##  6  2013     4    10     1100           1900       960     1342           2211
##  7  2013     3    17     2321            810       911      135           1020
##  8  2013     6    27      959           1900       899     1236           2226
##  9  2013     7    22     2257            759       898      121           1026
## 10  2013    12     5      756           1700       896     1058           2020
## # i 336,766 more rows
## # i 11 more variables: arr_delay <dbl>, carrier <chr>, flight <int>,
## #   tailnum <chr>, origin <chr>, dest <chr>, air_time <dbl>, distance <dbl>,
## #   hour <dbl>, minute <dbl>, time_hour <dttm>
…
어떤 항공편이 가장 멀리 운항했는가? 가장 짧게 운항한
항공편은?

3.4 select()로 열 선택하기

변수가 매우 많은 데이터셋을 만날 결우 첫 과제는 실제로 관심 있는
변수들로 좁히는 것입니다. select()와 변수 이름에 기반한 연산들을
이용하면 유용한 서브셋으로 신속하게 줌인(zoom in)해 볼 수
있습니다.

# 이름으로 열 선택
select(flights, year, month, day)

## # A tibble: 336,776 x 3
##     year month   day
##    <int> <int> <int>
##  1  2013     1     1
##  2  2013     1     1
##  3  2013     1     1
##  4  2013     1     1
##  5  2013     1     1
##  6  2013     1     1
##  7  2013     1     1
##  8  2013     1     1
##  9  2013     1     1
## 10  2013     1     1
## # i 336,766 more rows

# year과 day 사이의(경계 포함) 열 모두 선택
select(flights, year:day)

## # A tibble: 336,776 x 3
##     year month   day
##    <int> <int> <int>
##  1  2013     1     1
##  2  2013     1     1
##  3  2013     1     1
##  4  2013     1     1
##  5  2013     1     1
##  6  2013     1     1
##  7  2013     1     1
##  8  2013     1     1
##  9  2013     1     1
## 10  2013     1     1
## # i 336,766 more rows

# year에서 day까지의(경계 포함) 열들을 제외한 열 모두 선택
select(flights, -(year:day))

## # A tibble: 336,776 x 16
##    dep_time sched_dep_time dep_delay arr_time sched_arr_time arr_delay carrier
##       <int>          <int>     <dbl>    <int>          <int>     <dbl> <chr>  
##  1      517            515         2      830            819        11 UA     
##  2      533            529         4      850            830        20 UA     
##  3      542            540         2      923            850        33 AA     
##  4      544            545        -1     1004           1022       -18 B6     
##  5      554            600        -6      812            837       -25 DL     
##  6      554            558        -4      740            728        12 UA     
##  7      555            600        -5      913            854        19 B6     
##  8      557            600        -3      709            723       -14 EV     
##  9      557            600        -3      838            846        -8 B6     
## 10      558            600        -2      753            745         8 AA     
## # i 336,766 more rows
## # i 9 more variables: flight <int>, tailnum <chr>, origin <chr>, dest <chr>,
## #   air_time <dbl>, distance <dbl>, hour <dbl>, minute <dbl>, time_hour <dttm>

# 문자인 모든 열을 선택하기.
flights %>% 
  select(where(is.character))

## # A tibble: 336,776 x 4
##    carrier tailnum origin dest 
##    <chr>   <chr>   <chr>  <chr>
##  1 UA      N14228  EWR    IAH  
##  2 UA      N24211  LGA    IAH  
##  3 AA      N619AA  JFK    MIA  
##  4 B6      N804JB  JFK    BQN  
##  5 DL      N668DN  LGA    ATL  
##  6 UA      N39463  EWR    ORD  
##  7 B6      N516JB  EWR    FLL  
##  8 EV      N829AS  LGA    IAD  
##  9 B6      N593JB  JFK    MCO  
## 10 AA      N3ALAA  LGA    ORD  
## # i 336,766 more rows
…
변수명 변경에 select()를 이용할 수 있지만, 명시적으로 언급하지 않은
모든 변수를 누락하기 때문에 유용하지 않습니다. 대신 select()의
변형인  rename()을 사용하면
명시적으로 언급하지 않은 모든 변수를 유지합니다.

즉, 모든 변수들을 유지하면서, 변수 몇 개의 이름만 바꾸고
싶다면,

방법1) select() 대신 rename() 을 사용하면
된다:

rename(flights, tail_num = tailnum)

## # A tibble: 336,776 x 19
##     year month   day dep_time sched_dep_time dep_delay arr_time sched_arr_time
##    <int> <int> <int>    <int>          <int>     <dbl>    <int>          <int>
##  1  2013     1     1      517            515         2      830            819
##  2  2013     1     1      533            529         4      850            830
##  3  2013     1     1      542            540         2      923            850
##  4  2013     1     1      544            545        -1     1004           1022
##  5  2013     1     1      554            600        -6      812            837
##  6  2013     1     1      554            558        -4      740            728
##  7  2013     1     1      555            600        -5      913            854
##  8  2013     1     1      557            600        -3      709            723
##  9  2013     1     1      557            600        -3      838            846
## 10  2013     1     1      558            600        -2      753            745
## # i 336,766 more rows
## # i 11 more variables: arr_delay <dbl>, carrier <chr>, flight <int>,
## #   tail_num <chr>, origin <chr>, dest <chr>, air_time <dbl>, distance <dbl>,
## #   hour <dbl>, minute <dbl>, time_hour <dttm>

방법2) 다른 방법은 select()를 도우미 함수인
everything()과 함께 사용하는 것입니다. 몇 개의 변수를
데이터프레임의 시작 부분으로 옮기고 싶을 때 유용합니다.

select(flights, time_hour, air_time, everything())

## # A tibble: 336,776 x 19
##    time_hour           air_time  year month   day dep_time sched_dep_time
##    <dttm>                 <dbl> <int> <int> <int>    <int>          <int>
##  1 2013-01-01 05:00:00      227  2013     1     1      517            515
##  2 2013-01-01 05:00:00      227  2013     1     1      533            529
##  3 2013-01-01 05:00:00      160  2013     1     1      542            540
##  4 2013-01-01 05:00:00      183  2013     1     1      544            545
##  5 2013-01-01 06:00:00      116  2013     1     1      554            600
##  6 2013-01-01 05:00:00      150  2013     1     1      554            558
##  7 2013-01-01 06:00:00      158  2013     1     1      555            600
##  8 2013-01-01 06:00:00       53  2013     1     1      557            600
##  9 2013-01-01 06:00:00      140  2013     1     1      557            600
## 10 2013-01-01 06:00:00      138  2013     1     1      558            600
## # i 336,766 more rows
## # i 12 more variables: dep_delay <dbl>, arr_time <int>, sched_arr_time <int>,
## #   arr_delay <dbl>, carrier <chr>, flight <int>, tailnum <chr>, origin <chr>,
## #   dest <chr>, distance <dbl>, hour <dbl>, minute <dbl>

교재없음.. pdf파일 참조..

relocate()

relocate() 으로 변수를 여기저기 이동시킬 수 있다.
기본값으로 맨 앞으로 변수들을 이동시킨다.

flights %>% 
  relocate(time_hour, air_time)

## # A tibble: 336,776 x 19
##    time_hour           air_time  year month   day dep_time sched_dep_time
##    <dttm>                 <dbl> <int> <int> <int>    <int>          <int>
##  1 2013-01-01 05:00:00      227  2013     1     1      517            515
##  2 2013-01-01 05:00:00      227  2013     1     1      533            529
##  3 2013-01-01 05:00:00      160  2013     1     1      542            540
##  4 2013-01-01 05:00:00      183  2013     1     1      544            545
##  5 2013-01-01 06:00:00      116  2013     1     1      554            600
##  6 2013-01-01 05:00:00      150  2013     1     1      554            558
##  7 2013-01-01 06:00:00      158  2013     1     1      555            600
##  8 2013-01-01 06:00:00       53  2013     1     1      557            600
##  9 2013-01-01 06:00:00      140  2013     1     1      557            600
## 10 2013-01-01 06:00:00      138  2013     1     1      558            600
## # i 336,766 more rows
## # i 12 more variables: dep_delay <dbl>, arr_time <int>, sched_arr_time <int>,
## #   arr_delay <dbl>, carrier <chr>, flight <int>, tailnum <chr>, origin <chr>,
## #   dest <chr>, distance <dbl>, hour <dbl>, minute <dbl>

mutate() 에서와 같이 같은 .before 인수와 .after 인수를
사용하여 변수를 위치시킬 곳을 정할 수 있다.

flights %>% 
  relocate(year:dep_time, .after = time_hour)

## # A tibble: 336,776 x 19
##    sched_dep_time dep_delay arr_time sched_arr_time arr_delay carrier flight
##             <int>     <dbl>    <int>          <int>     <dbl> <chr>    <int>
##  1            515         2      830            819        11 UA        1545
##  2            529         4      850            830        20 UA        1714
##  3            540         2      923            850        33 AA        1141
##  4            545        -1     1004           1022       -18 B6         725
##  5            600        -6      812            837       -25 DL         461
##  6            558        -4      740            728        12 UA        1696
##  7            600        -5      913            854        19 B6         507
##  8            600        -3      709            723       -14 EV        5708
##  9            600        -3      838            846        -8 B6          79
## 10            600        -2      753            745         8 AA         301
## # i 336,766 more rows
## # i 12 more variables: tailnum <chr>, origin <chr>, dest <chr>, air_time <dbl>,
## #   distance <dbl>, hour <dbl>, minute <dbl>, time_hour <dttm>, year <int>,
## #   month <int>, day <int>, dep_time <int>
…
