5장 탐색적 데이터 분석(EDA)
…
하나의 측정값이 유효하지 않다고 해서 모든 측정값이 유효하지 않은 것은
아니므로 이 옵션은 권장하지 않는다. 또한, 저품질의 데이터가 있을
때마다 모든 변수에 대해서 이 방법을 적용하게 된다면 어떤 데이터도
남아있지 않게 될 것이다.

대신 이상값을 결측값으로 변경하는 방법을 권장한다. 가장 쉬운
방법으로는 mutate()를 사용하여 변수를 수정된 복사값으로
대체하는 것이다. ifelse() 함수를 사용하여 이상값을 NA로 바꿀 수
있다.

diamonds2 <- diamonds %>%
  mutate(y < 3 | y > 20, NA, y)
diamonds2

## # A tibble: 53,940 x 12
##    carat cut       color clarity depth table price     x     y     z
##    <dbl> <ord>     <ord> <ord>   <dbl> <dbl> <int> <dbl> <dbl> <dbl>
##  1  0.23 Ideal     E     SI2      61.5    55   326  3.95  3.98  2.43
##  2  0.21 Premium   E     SI1      59.8    61   326  3.89  3.84  2.31
##  3  0.23 Good      E     VS1      56.9    65   327  4.05  4.07  2.31
##  4  0.29 Premium   I     VS2      62.4    58   334  4.2   4.23  2.63
##  5  0.31 Good      J     SI2      63.3    58   335  4.34  4.35  2.75
##  6  0.24 Very Good J     VVS2     62.8    57   336  3.94  3.96  2.48
##  7  0.24 Very Good I     VVS1     62.3    57   336  3.95  3.98  2.47
##  8  0.26 Very Good H     SI1      61.9    55   337  4.07  4.11  2.53
##  9  0.22 Fair      E     VS2      65.1    61   337  3.87  3.78  2.49
## 10  0.23 Very Good H     VS1      59.4    61   338  4     4.05  2.39
## # i 53,930 more rows
## # i 2 more variables: `y < 3 | y > 20` <lgl>, `NA` <lgl>

diamonds2 <- diamonds %>%
  mutate(y= ifelse(y < 3 | y > 20, NA, y))
diamonds2

## # A tibble: 53,940 x 10
##    carat cut       color clarity depth table price     x     y     z
##    <dbl> <ord>     <ord> <ord>   <dbl> <dbl> <int> <dbl> <dbl> <dbl>
##  1  0.23 Ideal     E     SI2      61.5    55   326  3.95  3.98  2.43
##  2  0.21 Premium   E     SI1      59.8    61   326  3.89  3.84  2.31
##  3  0.23 Good      E     VS1      56.9    65   327  4.05  4.07  2.31
##  4  0.29 Premium   I     VS2      62.4    58   334  4.2   4.23  2.63
##  5  0.31 Good      J     SI2      63.3    58   335  4.34  4.35  2.75
##  6  0.24 Very Good J     VVS2     62.8    57   336  3.94  3.96  2.48
##  7  0.24 Very Good I     VVS1     62.3    57   336  3.95  3.98  2.47
##  8  0.26 Very Good H     SI1      61.9    55   337  4.07  4.11  2.53
##  9  0.22 Fair      E     VS2      65.1    61   337  3.87  3.78  2.49
## 10  0.23 Very Good H     VS1      59.4    61   338  4     4.05  2.39
## # i 53,930 more rows
…
플롯에서 원의 크기는 각 값의 조합에서 발생한 관측값의 수를
나타낸다. 공변동은 특정 x값과 y값 사이에 강한 상관관계로 나타날
것이다.

또 다른 방법은 dplyr로 빈도수를 계산하는 것이다.

diamonds %>%
  count(color, cut)  # 색상(color), 컷팅(cut)별로 빈도수 

## # A tibble: 35 x 3
##    color cut           n
##    <ord> <ord>     <int>
##  1 D     Fair        163
##  2 D     Good        662
##  3 D     Very Good  1513
##  4 D     Premium    1603
##  5 D     Ideal      2834
##  6 E     Fair        224
##  7 E     Good        933
##  8 E     Very Good  2400
##  9 E     Premium    2337
## 10 E     Ideal      3903
## # i 25 more rows
…
